<?xml version="1.0" encoding="UTF-8" standalone="no"?>
<!-- Generator: Adobe Illustrator 19.1.0, SVG Export Plug-In . SVG Version: 6.00 Build 0)  -->

<svg
   version="1.1"
   id="Capa_1"
   x="0px"
   y="0px"
   viewBox="0 0 63.999989 65.020249"
   xml:space="preserve"
   sodipodi:docname="full-screen-svgrepo-com.svg"
   width="63.999989"
   height="65.020248"
   inkscape:version="1.1.2 (b8e25be833, 2022-02-05)"
   xmlns:inkscape="http://www.inkscape.org/namespaces/inkscape"
   xmlns:sodipodi="http://sodipodi.sourceforge.net/DTD/sodipodi-0.dtd"
   xmlns="http://www.w3.org/2000/svg"
   xmlns:svg="http://www.w3.org/2000/svg"><defs
   id="defs75" /><sodipodi:namedview
   id="namedview73"
   pagecolor="#ffffff"
   bordercolor="#666666"
   borderopacity="1.0"
   inkscape:pageshadow="2"
   inkscape:pageopacity="0.0"
   inkscape:pagecheckerboard="0"
   showgrid="false"
   inkscape:zoom="4.9147723"
   inkscape:cx="24.212719"
   inkscape:cy="27.569945"
   inkscape:window-width="1920"
   inkscape:window-height="1001"
   inkscape:window-x="-9"
   inkscape:window-y="-9"
   inkscape:window-maximized="1"
   inkscape:current-layer="g38" />
<g
   id="g40"
   transform="matrix(-1,0,0,1,469.75268,0)">
	<g
   id="g38">
		<path
   d="m 463.7911,30.159475 c 0.84559,0 1.53744,-0.691849 1.53744,-1.537441 V 1.5374414 C 465.32854,0.69184862 464.63669,0 463.7911,0 h -56.50097 c -0.84559,0 -1.53744,0.69184862 -1.53744,1.5374414 V 58.0256 c 0,0.845593 0.69185,1.537442 1.53744,1.537442 h 27.23834 c 0.84559,0 1.53744,-0.691849 1.53744,-1.537442 0,-0.845592 -0.69185,-1.537441 -1.53744,-1.537441 h -25.7009 V 3.0748828 h 53.41327 V 28.622034 c 0.0129,0.858404 0.69186,1.537441 1.55026,1.537441 z"
   id="path2"
   style="stroke-width:0.12812" />
		
		
		
		
		
		
		
		
		
		
		
		
		
		
		
		
		<path
   d="m 421.43459,13.516672 h 9.5962 c 0.84559,0 1.53744,-0.691849 1.53744,-1.537441 0,-0.845593 -0.69185,-1.537442 -1.53744,-1.537442 h -13.29887 c -0.8456,0 -1.53745,0.691849 -1.53745,1.537442 V 25.29091 c 0,0.845593 0.69185,1.537442 1.53745,1.537442 0.84559,0 1.53744,-0.691849 1.53744,-1.537442 v -9.596196 l 16.77092,16.770923 c 0.29468,0.294676 0.69185,0.448421 1.08903,0.448421 0.39716,0 0.78153,-0.153745 1.08901,-0.448421 0.60217,-0.602165 0.60217,-1.575877 0,-2.178042 z"
   id="path36"
   style="stroke-width:0.12812" />
	<rect
   style="fill:#ffffff;stroke:#000000;stroke-width:2.80455;stroke-linecap:round;stroke-linejoin:round;stroke-miterlimit:4;stroke-dasharray:none"
   id="rect2194"
   width="25.066113"
   height="27.906534"
   x="-468.3504"
   y="35.711437"
   transform="scale(-1,1)"
   rx="1.4022757"
   ry="1.4022757" /></g>
</g>
<g
   id="g42"
   transform="translate(4.7526747)">
</g>
<g
   id="g44"
   transform="translate(4.7526747)">
</g>
<g
   id="g46"
   transform="translate(4.7526747)">
</g>
<g
   id="g48"
   transform="translate(4.7526747)">
</g>
<g
   id="g50"
   transform="translate(4.7526747)">
</g>
<g
   id="g52"
   transform="translate(4.7526747)">
</g>
<g
   id="g54"
   transform="translate(4.7526747)">
</g>
<g
   id="g56"
   transform="translate(4.7526747)">
</g>
<g
   id="g58"
   transform="translate(4.7526747)">
</g>
<g
   id="g60"
   transform="translate(4.7526747)">
</g>
<g
   id="g62"
   transform="translate(4.7526747)">
</g>
<g
   id="g64"
   transform="translate(4.7526747)">
</g>
<g
   id="g66"
   transform="translate(4.7526747)">
</g>
<g
   id="g68"
   transform="translate(4.7526747)">
</g>
<g
   id="g70"
   transform="translate(4.7526747)">
</g>
</svg>
